\relax 
\@writefile{toc}{\contentsline {section}{\numberline {1}Introduction}{1}}
\@writefile{toc}{\contentsline {section}{\numberline {2}Buisness Plan}{1}}
\@writefile{toc}{\contentsline {subsection}{\numberline {2.1}BMC}{1}}
\@writefile{toc}{\contentsline {subsection}{\numberline {2.2}faire du profit}{1}}
\@writefile{toc}{\contentsline {subsection}{\numberline {2.3}Explications d\IeC {\'e}taill\IeC {\'e}es}{2}}
\@writefile{toc}{\contentsline {section}{\numberline {3}Fonctionnement}{2}}
\@writefile{toc}{\contentsline {section}{\numberline {4}Apr\IeC {\`e}s Reviews}{2}}
\@writefile{toc}{\contentsline {section}{\numberline {5}wiki}{3}}
\@writefile{toc}{\contentsline {section}{\numberline {6}Conclusion}{3}}
